{
  "project_info": {
    "project_number": "815132321515",
    "firebase_url": "https://testy-39a6d.firebaseio.com",
    "project_id": "testy-39a6d",
    "storage_bucket": "testy-39a6d.appspot.com"
  },
  "client": [
    {
      "client_info": {
        "mobilesdk_app_id": "1:815132321515:android:e3a840bb6415d25822c0ae",
        "android_client_info": {
          "package_name": "com.example.darkskyapi"
        }
      },
      "oauth_client": [
        {
          "client_id": "815132321515-5g6393519hqi28m8ep9kse7ok894k7mj.apps.googleusercontent.com",
          "client_type": 3
        }
      ],
      "api_key": [
        {
          "current_key": "AIzaSyD9OV3XhymHq83WnL__a_Hu7oQn8kBLfk0"
        }
      ],
      "services": {
        "appinvite_service": {
          "other_platform_oauth_client": [
            {
              "client_id": "815132321515-5g6393519hqi28m8ep9kse7ok894k7mj.apps.googleusercontent.com",
              "client_type": 3
            }
          ]
        }
      }
    },
    {
      "client_info": {
        "mobilesdk_app_id": "1:815132321515:android:39edc59b7833da50",
        "android_client_info": {
          "package_name": "com.example.test"
        }
      },
      "oauth_client": [
        {
          "client_id": "815132321515-5g6393519hqi28m8ep9kse7ok894k7mj.apps.googleusercontent.com",
          "client_type": 3
        }
      ],
      "api_key": [
        {
          "current_key": "AIzaSyD9OV3XhymHq83WnL__a_Hu7oQn8kBLfk0"
        }
      ],
      "services": {
        "appinvite_service": {
          "other_platform_oauth_client": [
            {
              "client_id": "815132321515-5g6393519hqi28m8ep9kse7ok894k7mj.apps.googleusercontent.com",
              "client_type": 3
            }
          ]
        }
      }
    }
  ],
  "configuration_version": "1"
}